﻿[
    {
        "Id": 1,
        "Type": "Image",
		    "Title": "SICK TRICK CONTEST",
        "Thumbnail": "./sicktrickcontest.png",
        "Emoji": "./emojichallenge.png",
		    "Latitude": 36.835635,
		    "Longitude": 10.238970999999992,
		    "Altitude": 23
    },
    {
        "Id": 2,
        "Type": "Image",
		"Title": "SELFIE EVENT",
        "Thumbnail": "file:///assets/temp/dropthmbnail2.png",
        "Emoji": "file:///assets/temp/emojiselfie.png",
		"Latitude": 36.875635,
		"Longitude": 10.278970999999992,
		"Altitude": 30
    },
    {
        "Id": 3,
        "Type": "Video",
		"Title": "RACE EVENT",
        "Thumbnail" : "file:///assets/temp/Drop32x32.png",
        "Emoji": "file:///assets/temp/emojirace.png",
		"Latitude": 36.845635,
		"Longitude": 10.248970999999992,
		"Altitude": 60
    },
    
    {
        "Id": 4,
        "Type": "Image",
		"Title": "CHALLENGE SELFIE",
        "Thumbnail": "file:///assets/temp/challengeselfie.png",
        "Emoji": "file:///assets/temp/emojiselfie.png",
		"Latitude": 36.865635,
		"Longitude": 10.268970999999992,
		"Altitude": 10
    }
]